"서비스구분","서비스ID","대분류명","소분류명","서비스상태","서비스명","결제방법","장소명","서비스대상","바로가기URL","장소X좌표","장소Y좌표","서비스개시시작일시","서비스개시종료일시","접수시작일시","접수종료일시","지역명"
"자체","S150414083150787806","교육","자연/과학","접수중","잠원한강의 사계(유아생태프로그램)[잠원한강]","무료","잠원한강공원","유아제한없음","http://yeyak.seoul.go.kr/reservation/view.web?rsvsvcid=S150414083150787806","37.520750186462806","127.01227135864971","2015-05-05 00:00:00.0","2020-11-25 00:00:00.0","2015-04-20 00:00:00.0","2020-11-23 00:00:00.0","서초구"
"자체","S200208121137291315","교육","도시농업","접수종료","2020년 상반기 귀농창업  실습반 교육 신청","무료","농업기술센터>센터 대강당","성인(서울시민)","http://yeyak.seoul.go.kr/reservation/view.web?rsvsvcid=S200208121137291315","","","2020-02-08 00:00:00.0","2020-06-26 00:00:00.0","2020-02-11 10:00:00.0","2020-03-13 18:00:00.0","서초구"
"자체","S200219105252472323","교육","도시농업","접수종료","2020년 양봉 전문인력 양성교육 희망자 모집","무료","농업기술센터","성인","http://yeyak.seoul.go.kr/reservation/view.web?rsvsvcid=S200219105252472323","","","2020-02-19 00:00:00.0","2020-11-02 00:00:00.0","2020-02-24 11:00:00.0","2020-03-04 15:00:00.0","서초구"
"자체","S200414155101077579","교육","도시농업","접수종료","2020년 귀촌(전원생활)교육 6기","무료","농업기술센터>센터 대강당","성인","http://yeyak.seoul.go.kr/reservation/view.web?rsvsvcid=S200414155101077579","","","2020-04-14 00:00:00.0","2020-06-12 00:00:00.0","2020-04-16 11:00:00.0","2020-04-29 15:00:00.0","서초구"
"자체","S200414155525973443","교육","도시농업","접수종료","2020년 귀촌(전원생활)교육 7기","무료","농업기술센터>센터 대강당","성인","http://yeyak.seoul.go.kr/reservation/view.web?rsvsvcid=S200414155525973443","","","2020-04-14 00:00:00.0","2020-07-03 00:00:00.0","2020-04-16 11:00:00.0","2020-04-29 15:00:00.0","서초구"
"자체","S200420144550656018","교육","도시농업","접수종료","2020년 곤충산업 전문인력 양성교육 대상자 모집","무료","농업기술센터","성인","http://yeyak.seoul.go.kr/reservation/view.web?rsvsvcid=S200420144550656018","","","2020-04-20 00:00:00.0","2020-10-13 00:00:00.0","2020-04-22 10:00:00.0","2020-05-01 15:00:00.0","서초구"
"자체","S200525133639947903","교육","자연/과학","접수중","양재숲 친구들과 만나요","무료","시민의숲","어린이(6세이상 어린이와 보호자)","http://yeyak.seoul.go.kr/reservation/view.web?rsvsvcid=S200525133639947903","37.47233267032548","127.03527095162278","2020-05-25 00:00:00.0","2020-06-28 00:00:00.0","2020-05-25 14:00:00.0","2020-06-27 17:00:00.0","서초구"
"자체","S200526103908586161","교육","도시농업","접수종료","2020년 도시농업 힐링교육(6월) 참여자 모집","무료","농업기술센터>센터 대강당","제한없음","http://yeyak.seoul.go.kr/reservation/view.web?rsvsvcid=S200526103908586161","","","2020-05-26 00:00:00.0","2020-06-19 00:00:00.0","2020-05-27 10:00:00.0","2020-06-08 16:00:00.0","서초구"
"자체","S200527123119011827","교육","자연/과학","접수중","플로라 오브 한강 [flora of hangang](잠원한강)","무료","잠원한강공원>잠원안내센터","제한없음","http://yeyak.seoul.go.kr/reservation/view.web?rsvsvcid=S200527123119011827","37.520750186462806","127.01227135864971","2020-05-27 00:00:00.0","2020-12-31 00:00:00.0","2020-05-27 00:00:00.0","2020-12-31 00:00:00.0","서초구"
"자체","S200610080136143025","교육","도시농업","접수중","6월 서울농업체험 그린투어 참가자 모집","무료","농업기술센터","제한없음","http://yeyak.seoul.go.kr/reservation/view.web?rsvsvcid=S200610080136143025","","","2020-06-10 00:00:00.0","2020-06-24 00:00:00.0","2020-06-10 10:00:00.0","2020-06-12 17:00:00.0","서초구"