"키","분류1","분류2","분류3","검색어","명칭","행정 시","행정 구","행정 동"
"BE_IW18-0221","관광/숙박","숙박","여관-여인숙","서울장","서울장","서울특별시","금천구","가산동"
"BE_IW18-0035","관광/숙박","숙박","모텔","밀라노모텔","밀라노모텔","서울특별시","성동구","왕십리도선동"
"BE_IW18-0036","관광/숙박","숙박","모텔","발렌시아모텔","발렌시아모텔","서울특별시","강북구","인수동"
"BE_IW18-0037","관광/숙박","숙박","모텔","벨라지오호텔","벨라지오호텔","서울특별시","송파구","방이2동"
"BE_IW18-0038","관광/숙박","숙박","모텔","보보호텔","보보호텔","서울특별시","마포구","서교동"
"BE_IW18-0039","관광/숙박","숙박","모텔","본모텔","본모텔","서울특별시","강서구","염창동"
"BE_IW18-0040","관광/숙박","숙박","모텔","사랑방모텔","사랑방모텔","서울특별시","도봉구","방학2동"
"BE_IW18-0041","관광/숙박","숙박","모텔","삼오모텔","삼오모텔","서울특별시","종로구","종로1.2.3.4가동"
"BE_IW18-0042","관광/숙박","숙박","모텔","삼우모텔","삼우모텔","서울특별시","송파구","삼전동"
"BE_IW18-0043","관광/숙박","숙박","모텔","샐몬모텔","샐몬모텔","서울특별시","광진구","중곡1동"
"BE_IW18-0044","관광/숙박","숙박","모텔","샘모텔","샘모텔","서울특별시","강남구","역삼1동"
"BE_IW18-0045","관광/숙박","숙박","모텔","샹그리아모텔","샹그리아모텔","서울특별시","강남구","역삼1동"
"BE_IW18-0046","관광/숙박","숙박","모텔","선파크모텔","선파크","서울특별시","송파구","방이2동"
"BE_IW18-0047","관광/숙박","숙박","모텔","세르빌모텔","세르빌","서울특별시","송파구","방이2동"
"BE_IW18-0048","관광/숙박","숙박","모텔","세피아모텔","세피아모텔","서울특별시","노원구","상계6.7동"
"BE_IW18-0049","관광/숙박","숙박","모텔","쉘모텔","쉘모텔","서울특별시","서초구","방배본동"
"BE_IW18-0050","관광/숙박","숙박","모텔","쉴모텔","쉴모텔","서울특별시","광진구","군자동"
"BE_IW18-0051","관광/숙박","숙박","모텔","쉴모텔","쉴모텔","서울특별시","은평구","불광2동"
"BE_IW18-0052","관광/숙박","숙박","모텔","쉼호텔","쉼호텔","서울특별시","동대문구","장안2동"
"BE_IW18-0053","관광/숙박","숙박","모텔","스카이모텔","스카이모텔","서울특별시","강남구","역삼1동"
"BE_IW18-0054","관광/숙박","숙박","모텔","스카이모텔","스카이모텔","서울특별시","종로구","종로1.2.3.4가동"
"BE_IW18-0055","관광/숙박","숙박","모텔","스카이모텔","스카이모텔","서울특별시","송파구","잠실본동"
"BE_IW18-0056","관광/숙박","숙박","모텔","스카이모텔","스카이모텔","서울특별시","광진구","화양동"
"BE_IW18-0057","관광/숙박","숙박","모텔","시네마모텔","시네마","서울특별시","동대문구","장안2동"
"BE_IW18-0058","관광/숙박","숙박","모텔","시네마모텔","시네마","서울특별시","광진구","자양4동"
"BE_IW18-0059","관광/숙박","숙박","모텔","시네마모텔","시네마모텔","서울특별시","종로구","종로1.2.3.4가동"
"BE_IW18-0060","관광/숙박","숙박","모텔","시네마팰리스모텔","시네마팰리스모텔","서울특별시","강북구","수유3동"
"BE_IW18-0061","관광/숙박","숙박","모텔","시안모텔","시안모텔","서울특별시","은평구","대조동"
"BE_IW18-0062","관광/숙박","숙박","모텔","시에스타모텔","시에스타모텔","서울특별시","강북구","번1동"
"BE_IW18-0063","관광/숙박","숙박","모텔","시원모텔","시원모텔","서울특별시","구로구","오류2동"
"BE_IW18-0064","관광/숙박","숙박","모텔","신세계모텔","신세계모텔","서울특별시","강북구","송중동"
"BE_IW18-0065","관광/숙박","숙박","모텔","아로마모텔","아로마모텔","서울특별시","금천구","독산4동"
"BE_IW18-0066","관광/숙박","숙박","모텔","아세아모텔","아세아모텔","서울특별시","송파구","잠실본동"
"BE_IW18-0067","관광/숙박","숙박","모텔","에펠준모텔","에펠준모텔","서울특별시","금천구","가산동"
"BE_IW18-0068","관광/숙박","숙박","모텔","엠컬러모텔","엠컬러","서울특별시","광진구","구의2동"
"BE_IW18-0069","관광/숙박","숙박","모텔","엠호텔모텔","엠호텔","서울특별시","강남구","역삼1동"
"BE_IW18-0070","관광/숙박","숙박","모텔","오스카모텔","오스카모텔","서울특별시","서초구","반포4동"
"BE_IW18-0071","관광/숙박","숙박","모텔","오슬로호텔","오슬로호텔","서울특별시","강서구","화곡1동"
"BE_IW18-0072","관광/숙박","숙박","모텔","유니온모텔","유니온모텔","서울특별시","성북구","보문동"
"BE_IW18-0073","관광/숙박","숙박","모텔","유미모텔","유미모텔","서울특별시","강동구","길동"
"BE_IW18-0074","관광/숙박","숙박","모텔","은산모텔","은산모텔","서울특별시","성동구","용답동"
"BE_IW18-0075","관광/숙박","숙박","모텔","조하모텔","조하모텔","서울특별시","구로구","개봉2동"
"BE_IW18-0076","관광/숙박","숙박","모텔","청기와모텔","청기와모텔","서울특별시","양천구","신월2동"
"BE_IW18-0077","관광/숙박","숙박","모텔","첼로모텔","첼로모텔","서울특별시","강북구","수유3동"
"BE_IW18-0078","관광/숙박","숙박","모텔","첼로모텔","첼로모텔","서울특별시","송파구","방이2동"
"BE_IW18-0079","관광/숙박","숙박","모텔","첼로호텔","첼로호텔","서울특별시","서초구","서초3동"
"BE_IW18-0080","관광/숙박","숙박","모텔","초콜렛호텔","초콜렛호텔","서울특별시","강서구","화곡1동"
"BE_IW18-0081","관광/숙박","숙박","모텔","초콜렛호텔","초콜렛호텔","서울특별시","강남구","역삼1동"
"BE_IW18-0082","관광/숙박","숙박","모텔","카프리","카프리","서울특별시","송파구","방이2동"
"BE_IW18-0083","관광/숙박","숙박","모텔","큐모텔","큐모텔","서울특별시","강서구","화곡본동"
"BE_IW18-0084","관광/숙박","숙박","모텔","타워모텔","타워모텔","서울특별시","강동구","길동"
"BE_IW18-0085","관광/숙박","숙박","모텔","테마모텔","테마모텔","서울특별시","동작구","상도2동"
"BE_IW18-0086","관광/숙박","숙박","모텔","테마모텔","테마모텔","서울특별시","중랑구","면목2동"
"BE_IW18-0087","관광/숙박","숙박","모텔","파라다이스","파라다이스","서울특별시","성동구","왕십리도선동"
"BE_IW18-0088","관광/숙박","숙박","모텔","파레스모텔","파레스모텔","서울특별시","강북구","수유1동"
"BE_IW18-0089","관광/숙박","숙박","모텔","파크웨이호텔","파크웨이호텔","서울특별시","송파구","방이2동"
"BE_IW18-0090","관광/숙박","숙박","모텔","파티오모텔","파티오모텔","서울특별시","강북구","번1동"
"BE_IW18-0091","관광/숙박","숙박","모텔","포도모텔","포도모텔","서울특별시","관악구","신림동"
"BE_IW18-0092","관광/숙박","숙박","모텔","폼모텔","폼모텔","서울특별시","송파구","잠실본동"
"BE_IW18-0093","관광/숙박","숙박","모텔","프라하모텔","프라하모텔","서울특별시","양천구","신월1동"
"BE_IW18-0094","관광/숙박","숙박","모텔","프리마호텔","프리마호텔","서울특별시","강동구","길동"
"BE_IW18-0095","관광/숙박","숙박","모텔","피아노모텔","피아노모텔","서울특별시","성북구","보문동"
"BE_IW18-0096","관광/숙박","숙박","모텔","피카소모텔","피카소모텔","서울특별시","강북구","인수동"
"BE_IW18-0097","관광/숙박","숙박","모텔","하이모텔","하이모텔","서울특별시","중랑구","망우본동"
"BE_IW18-0098","관광/숙박","숙박","모텔","하이트모텔","하이트모텔","서울특별시","관악구","낙성대동"
"BE_IW18-0314","관광/숙박","숙박","여관-여인숙","티파니모텔","티파니모텔","서울특별시","송파구","방이2동"
"BE_IW18-0315","관광/숙박","숙박","여관-여인숙","평안여인숙","평안여인숙","서울특별시","구로구","구로3동"
"BE_IW18-0316","관광/숙박","숙박","여관-여인숙","폭스모텔","폭스모텔","서울특별시","구로구","오류2동"
"BE_IW18-0317","관광/숙박","숙박","여관-여인숙","폴라리스","폴라리스","서울특별시","영등포구","영등포동"
"BE_IW18-0318","관광/숙박","숙박","여관-여인숙","프리마모텔","프리마모텔","서울특별시","광진구","화양동"
"BE_IW18-0319","관광/숙박","숙박","여관-여인숙","하늘사랑모텔","하늘사랑모텔","서울특별시","중랑구","망우본동"
"BE_IW18-0320","관광/숙박","숙박","여관-여인숙","하림모텔","하림모텔","서울특별시","성동구","송정동"
"BE_IW18-0321","관광/숙박","숙박","여관-여인숙","하얏트","하얏트","서울특별시","금천구","시흥1동"
"BE_IW18-0322","관광/숙박","숙박","여관-여인숙","하트장","하트장","서울특별시","중랑구","상봉2동"
"BE_IW18-0323","관광/숙박","숙박","여관-여인숙","한양여인숙","한양여인숙","서울특별시","용산구","남영동"
"BE_IW18-0324","관광/숙박","숙박","여관-여인숙","해동장여인숙","해동장여인숙","서울특별시","영등포구","양평1동"
"BE_IW18-0325","관광/숙박","숙박","여관-여인숙","호림모텔","호림모텔","서울특별시","광진구","화양동"
"BE_IW18-0326","관광/숙박","숙박","여관-여인숙","호텔럭스","호텔럭스","서울특별시","노원구","상계6.7동"
"BE_IW18-0327","관광/숙박","숙박","여관-여인숙","호텔야자/오류역점","호텔야자오류역점","서울특별시","구로구","오류2동"
"BE_IW18-0328","관광/숙박","숙박","여관-여인숙","홀리데이인 코리아호스텔","홀리데이인코리아호스텔","서울특별시","종로구","종로1.2.3.4가동"
"BE_IW18-0329","관광/숙박","숙박","여관-여인숙","홍림장","홍림장","서울특별시","중랑구","망우본동"
"BE_IW18-0330","관광/숙박","숙박","여관-여인숙","화성장","화성장","서울특별시","은평구","대조동"
"BE_IW18-0331","관광/숙박","숙박","여관-여인숙","황금장","황금장","서울특별시","은평구","갈현1동"
"BE_IW18-0332","관광/숙박","숙박","여관-여인숙","황금파크","황금파크","서울특별시","광진구","구의2동"
"BE_IW18-0333","관광/숙박","숙박","여관-여인숙","힐튼모텔","힐튼모텔","서울특별시","강서구","화곡본동"
"BE_IW18-0334","관광/숙박","숙박","여관-여인숙","힐하우스호텔","힐하우스호텔","서울특별시","중구","회현동"
"BE_IW18-0335","관광/숙박","숙박","민박","청뫼골농장","청뫼골농장","서울특별시","노원구","상계3.4동"
"BE_IW18-0336","관광/숙박","숙박","팬션","남현당","남현당","서울특별시","종로구","종로1.2.3.4가동"
"BE_IW18-0337","관광/숙박","숙박","팬션","문게스트하우스","문게스트하우스","서울특별시","종로구","종로1.2.3.4가동"
"BE_IW18-0338","관광/숙박","숙박","팬션","유진하우스","유진하우스","서울특별시","종로구","혜화동"
"BE_IW18-0339","관광/숙박","숙박","팬션","프렌즈하우스","프렌즈하우스","서울특별시","종로구","혜화동"
"BE_IW18-0340","관광/숙박","숙박","팬션","휴안","휴안","서울특별시","종로구","가회동"
"BE_IW18-0001","관광/숙박","숙박","콘도","더파인트리콘도","더파인트리콘도","서울특별시","강북구","우이동"
"BE_IW18-0002","관광/숙박","숙박","콘도","토비스","토비스","서울특별시","서초구","양재1동"
"BE_IW18-0003","관광/숙박","숙박","모텔","21세기모텔","21세기모텔","서울특별시","관악구","청룡동"
"BE_IW18-0004","관광/숙박","숙박","모텔","CL모텔","CL모텔","서울특별시","강서구","염창동"
"BE_IW18-0005","관광/숙박","숙박","모텔","GS호텔","GS호텔","서울특별시","종로구","종로1.2.3.4가동"
"BE_IW18-0006","관광/숙박","숙박","모텔","M모텔","M모텔","서울특별시","동대문구","용신동"
"BE_IW18-0007","관광/숙박","숙박","모텔","UNI모텔","UNI모텔","서울특별시","강동구","천호2동"
"BE_IW18-0008","관광/숙박","숙박","모텔","VOLE호텔","VOLE호텔","서울특별시","강남구","역삼1동"
"BE_IW18-0009","관광/숙박","숙박","모텔","거기","거기","서울특별시","강서구","화곡1동"
"BE_IW18-0010","관광/숙박","숙박","모텔","겔러리아모텔","겔러리아모텔","서울특별시","구로구","오류2동"
"BE_IW18-0011","관광/숙박","숙박","모텔","그랜드모텔","그랜드모텔","서울특별시","관악구","남현동"
"BE_IW18-0012","관광/숙박","숙박","모텔","금강산모텔","금강산모텔","서울특별시","성동구","용답동"
"BE_IW18-0013","관광/숙박","숙박","모텔","길동모텔","길동모텔","서울특별시","강동구","길동"
"BE_IW18-0014","관광/숙박","숙박","모텔","나두모텔","나두모텔","서울특별시","강북구","수유1동"
"BE_IW18-0015","관광/숙박","숙박","모텔","노블레스모텔","노블레스모텔","서울특별시","강북구","수유1동"
"BE_IW18-0016","관광/숙박","숙박","모텔","노블호텔","노블호텔","서울특별시","종로구","종로1.2.3.4가동"
"BE_IW18-0017","관광/숙박","숙박","모텔","뉴몬드모텔","뉴몬드모텔","서울특별시","노원구","상계6.7동"
"BE_IW18-0018","관광/숙박","숙박","모텔","다이너스모텔","다이너스모텔","서울특별시","강북구","인수동"
"BE_IW18-0019","관광/숙박","숙박","모텔","대동모텔","대동모텔","서울특별시","광진구","자양4동"
"BE_IW18-0020","관광/숙박","숙박","모텔","더뷰","더뷰","서울특별시","송파구","방이2동"
"BE_IW18-0021","관광/숙박","숙박","모텔","덕수모텔","덕수모텔","서울특별시","은평구","갈현1동"
"BE_IW18-0022","관광/숙박","숙박","모텔","디오로호텔","디오로호텔","서울특별시","용산구","이태원1동"
"BE_IW18-0023","관광/숙박","숙박","모텔","라노스모텔","라노스모텔","서울특별시","은평구","불광2동"
"BE_IW18-0024","관광/숙박","숙박","모텔","라마다특급/모텔","라마다특급모텔","서울특별시","성북구","동선동"
"BE_IW18-0025","관광/숙박","숙박","모텔","라이프스타일/F호텔","라이프스타일F호텔","서울특별시","영등포구","영등포동"
"BE_IW18-0026","관광/숙박","숙박","모텔","레인보우모텔","레인보우모텔","서울특별시","강서구","화곡1동"
"BE_IW18-0027","관광/숙박","숙박","모텔","로데오모텔","로데오모텔","서울특별시","양천구","신정4동"
"BE_IW18-0028","관광/숙박","숙박","모텔","로데오모텔","로데오모텔","서울특별시","중랑구","면목7동"
"BE_IW18-0029","관광/숙박","숙박","모텔","리노호텔","리노호텔","서울특별시","송파구","방이2동"
"BE_IW18-0030","관광/숙박","숙박","모텔","리베라모텔","리베라모텔","서울특별시","성북구","동선동"
"BE_IW18-0031","관광/숙박","숙박","모텔","마마모텔","마마모텔","서울특별시","강동구","명일1동"
"BE_IW18-0032","관광/숙박","숙박","모텔","메르디앙모텔","메르디앙모텔","서울특별시","서대문구","신촌동"
"BE_IW18-0033","관광/숙박","숙박","모텔","모로코호텔","모로코호텔","서울특별시","송파구","방이2동"
"BE_IW18-0034","관광/숙박","숙박","모텔","모텔수","모텔수","서울특별시","은평구","응암1동"
"BE_IW18-0099","관광/숙박","숙박","모텔","하이파크모텔","하이파크모텔","서울특별시","관악구","청룡동"
"BE_IW18-0100","관광/숙박","숙박","모텔","한려장모텔","한려장모텔","서울특별시","관악구","신림동"
"BE_IW18-0101","관광/숙박","숙박","모텔","한양","한양","서울특별시","중랑구","묵2동"
"BE_IW18-0102","관광/숙박","숙박","모텔","허리우드모텔","허리우드모텔","서울특별시","영등포구","영등포동"
"BE_IW18-0103","관광/숙박","숙박","모텔","호텔발렌타인","호텔발렌타인","서울특별시","금천구","독산1동"
"BE_IW18-0104","관광/숙박","숙박","모텔","호텔힙","호텔힙","서울특별시","서대문구","신촌동"
"BE_IW18-0105","관광/숙박","숙박","모텔","홀인원모텔","홀인원모텔","서울특별시","강북구","수유1동"
"BE_IW18-0106","관광/숙박","숙박","모텔","화곡모텔","화곡모텔","서울특별시","강서구","화곡1동"
"BE_IW18-0107","관광/숙박","숙박","모텔","휴모텔","휴모텔","서울특별시","동작구","대방동"
"BE_IW18-0108","관광/숙박","숙박","여관-여인숙","케이투","케이투","서울특별시","강서구","화곡1동"
"BE_IW18-0109","관광/숙박","숙박","여관-여인숙","PX모텔","PX모텔","서울특별시","영등포구","영등포동"
"BE_IW18-0110","관광/숙박","숙박","여관-여인숙","W모텔","W모텔","서울특별시","도봉구","창5동"
"BE_IW18-0111","관광/숙박","숙박","여관-여인숙","W모텔","W모텔","서울특별시","광진구","화양동"
"BE_IW18-0112","관광/숙박","숙박","여관-여인숙","가든파크","가든파크","서울특별시","관악구","신림동"
"BE_IW18-0113","관광/숙박","숙박","여관-여인숙","가야","가야","서울특별시","강남구","삼성2동"
"BE_IW18-0114","관광/숙박","숙박","여관-여인숙","강나루장","강나루장","서울특별시","강동구","암사2동"
"BE_IW18-0115","관광/숙박","숙박","여관-여인숙","강변장","강변장","서울특별시","광진구","자양4동"
"BE_IW18-0116","관광/숙박","숙박","여관-여인숙","개풍장모텔","개풍장모텔","서울특별시","구로구","개봉2동"
"BE_IW18-0117","관광/숙박","숙박","여관-여인숙","경림장여관","경림장여관","서울특별시","도봉구","쌍문3동"
"BE_IW18-0118","관광/숙박","숙박","여관-여인숙","계림장","계림장","서울특별시","강동구","천호3동"
"BE_IW18-0119","관광/숙박","숙박","여관-여인숙","골든플라자","골든플라자","서울특별시","강서구","화곡1동"
"BE_IW18-0120","관광/숙박","숙박","여관-여인숙","광덕장","광덕장","서울특별시","중구","중림동"
"BE_IW18-0121","관광/숙박","숙박","여관-여인숙","국빈장","국빈장","서울특별시","관악구","신림동"
"BE_IW18-0122","관광/숙박","숙박","여관-여인숙","국일","국일","서울특별시","관악구","신림동"
"BE_IW18-0123","관광/숙박","숙박","여관-여인숙","궁모텔","궁","서울특별시","은평구","응암1동"
"BE_IW18-0124","관광/숙박","숙박","여관-여인숙","귀빈장","귀빈장","서울특별시","성동구","성수1가1동"
"BE_IW18-0125","관광/숙박","숙박","여관-여인숙","그랑프리","그랑프리","서울특별시","마포구","대흥동"
"BE_IW18-0126","관광/숙박","숙박","여관-여인숙","그린","그린","서울특별시","강서구","화곡1동"
"BE_IW18-0127","관광/숙박","숙박","여관-여인숙","그린피아","그린피아","서울특별시","강서구","화곡1동"
"BE_IW18-0128","관광/숙박","숙박","여관-여인숙","극동장","극동장","서울특별시","성북구","석관동"
"BE_IW18-0129","관광/숙박","숙박","여관-여인숙","금강모텔","금강모텔","서울특별시","은평구","대조동"
"BE_IW18-0130","관광/숙박","숙박","여관-여인숙","금강여인숙","금강여인숙","서울특별시","영등포구","당산1동"
"BE_IW18-0131","관광/숙박","숙박","여관-여인숙","금정장","금정장","서울특별시","관악구","신림동"
"BE_IW18-0132","관광/숙박","숙박","여관-여인숙","금호장","금호장","서울특별시","양천구","신정3동"
"BE_IW18-0133","관광/숙박","숙박","여관-여인숙","길림장여관","길림장여관","서울특별시","중랑구","상봉2동"
"BE_IW18-0134","관광/숙박","숙박","여관-여인숙","꾸띠","꾸띠","서울특별시","강남구","대치4동"
"BE_IW18-0135","관광/숙박","숙박","여관-여인숙","꿈의궁전모텔","꿈의궁전모텔","서울특별시","관악구","낙성대동"
"BE_IW18-0136","관광/숙박","숙박","여관-여인숙","남산장","남산장","서울특별시","구로구","가리봉동"
"BE_IW18-0137","관광/숙박","숙박","여관-여인숙","남양","남양","서울특별시","영등포구","영등포동"
"BE_IW18-0138","관광/숙박","숙박","여관-여인숙","남천장","남천장","서울특별시","동작구","노량진2동"
"BE_IW18-0139","관광/숙박","숙박","여관-여인숙","넥스모텔","넥스모텔","서울특별시","동대문구","장안2동"
"BE_IW18-0140","관광/숙박","숙박","여관-여인숙","뉴스타장","뉴스타장","서울특별시","도봉구","도봉1동"
"BE_IW18-0141","관광/숙박","숙박","여관-여인숙","뉴알프스모텔","뉴알프스모텔","서울특별시","강서구","화곡1동"
"BE_IW18-0142","관광/숙박","숙박","여관-여인숙","뉴힐튼","뉴힐튼","서울특별시","금천구","독산3동"
"BE_IW18-0143","관광/숙박","숙박","여관-여인숙","다이나모텔","다이나모텔","서울특별시","관악구","남현동"
"BE_IW18-0144","관광/숙박","숙박","여관-여인숙","대도장","대도장","서울특별시","영등포구","대림1동"
"BE_IW18-0145","관광/숙박","숙박","여관-여인숙","대양장","대양장","서울특별시","중구","명동"
"BE_IW18-0146","관광/숙박","숙박","여관-여인숙","대영장여관","대영장여관","서울특별시","중구","중림동"
"BE_IW18-0147","관광/숙박","숙박","여관-여인숙","대운장","대운장","서울특별시","마포구","대흥동"
"BE_IW18-0148","관광/숙박","숙박","여관-여인숙","대호장","대호장","서울특별시","노원구","월계1동"
"BE_IW18-0149","관광/숙박","숙박","여관-여인숙","덕성장","덕성장","서울특별시","용산구","남영동"
"BE_IW18-0150","관광/숙박","숙박","여관-여인숙","도봉산장","도봉산장","서울특별시","도봉구","도봉1동"
"BE_IW18-0151","관광/숙박","숙박","여관-여인숙","도원여인숙","도원여인숙","서울특별시","구로구","구로4동"
"BE_IW18-0152","관광/숙박","숙박","여관-여인숙","동경모텔","동경모텔","서울특별시","마포구","서교동"
"BE_IW18-0153","관광/숙박","숙박","여관-여인숙","동보장","동보장","서울특별시","동대문구","제기동"
"BE_IW18-0154","관광/숙박","숙박","여관-여인숙","동일장","동일장","서울특별시","동작구","상도2동"
"BE_IW18-0155","관광/숙박","숙박","여관-여인숙","동일장","동일장","서울특별시","강남구","역삼1동"
"BE_IW18-0156","관광/숙박","숙박","여관-여인숙","동지모텔","동지모텔","서울특별시","은평구","대조동"
"BE_IW18-0157","관광/숙박","숙박","여관-여인숙","라노스","라노스","서울특별시","관악구","신림동"
"BE_IW18-0158","관광/숙박","숙박","여관-여인숙","라세느모텔","라세느모텔","서울특별시","마포구","대흥동"
"BE_IW18-0159","관광/숙박","숙박","여관-여인숙","라이프호텔","라이프호텔","서울특별시","강북구","수유1동"
"BE_IW18-0282","관광/숙박","숙박","여관-여인숙","창원장","창원장","서울특별시","구로구","구로2동"
"BE_IW18-0222","관광/숙박","숙박","여관-여인숙","선유도","선유도","서울특별시","영등포구","양평2동"
"BE_IW18-0223","관광/숙박","숙박","여관-여인숙","성림장","성림장","서울특별시","중랑구","망우본동"
"BE_IW18-0224","관광/숙박","숙박","여관-여인숙","성원장","성원장","서울특별시","강북구","삼양동"
"BE_IW18-0225","관광/숙박","숙박","여관-여인숙","성호모텔","성호모텔","서울특별시","금천구","독산4동"
"BE_IW18-0226","관광/숙박","숙박","여관-여인숙","수모텔","수모텔","서울특별시","서대문구","신촌동"
"BE_IW18-0227","관광/숙박","숙박","여관-여인숙","수송장","수송장","서울특별시","종로구","종로1.2.3.4가동"
"BE_IW18-0228","관광/숙박","숙박","여관-여인숙","쉐르벨호텔","쉐르벨호텔","서울특별시","송파구","방이2동"
"BE_IW18-0229","관광/숙박","숙박","여관-여인숙","스위스","스위스","서울특별시","관악구","신림동"
"BE_IW18-0230","관광/숙박","숙박","여관-여인숙","스텔라","스텔라","서울특별시","강남구","역삼2동"
"BE_IW18-0231","관광/숙박","숙박","여관-여인숙","스토리투","스토리투","서울특별시","구로구","구로5동"
"BE_IW18-0232","관광/숙박","숙박","여관-여인숙","시네마모텔","시네마모텔","서울특별시","강서구","화곡6동"
"BE_IW18-0233","관광/숙박","숙박","여관-여인숙","시애틀호텔","시애틀호텔","서울특별시","강남구","역삼1동"
"BE_IW18-0234","관광/숙박","숙박","여관-여인숙","시에프호텔","시에프호텔","서울특별시","서대문구","남가좌1동"
"BE_IW18-0235","관광/숙박","숙박","여관-여인숙","신나모텔","신나모텔","서울특별시","중랑구","중화2동"
"BE_IW18-0236","관광/숙박","숙박","여관-여인숙","신라장","신라장","서울특별시","영등포구","신길1동"
"BE_IW18-0237","관광/숙박","숙박","여관-여인숙","신영","신영","서울특별시","종로구","부암동"
"BE_IW18-0238","관광/숙박","숙박","여관-여인숙","신영모텔","신영모텔","서울특별시","영등포구","영등포동"
"BE_IW18-0239","관광/숙박","숙박","여관-여인숙","신일장","신일장","서울특별시","강북구","송천동"
"BE_IW18-0240","관광/숙박","숙박","여관-여인숙","싼타페모텔","싼타페모텔","서울특별시","광진구","화양동"
"BE_IW18-0241","관광/숙박","숙박","여관-여인숙","아로마","아로마","서울특별시","종로구","사직동"
"BE_IW18-0242","관광/숙박","숙박","여관-여인숙","아모르","아모르","서울특별시","동대문구","이문1동"
"BE_IW18-0243","관광/숙박","숙박","여관-여인숙","아미고스호텔","아미고스호텔","서울특별시","강서구","공항동"
"BE_IW18-0244","관광/숙박","숙박","여관-여인숙","아비숑모텔","아비숑모텔","서울특별시","관악구","청룡동"
"BE_IW18-0245","관광/숙박","숙박","여관-여인숙","아테네","아테네","서울특별시","중랑구","망우본동"
"BE_IW18-0246","관광/숙박","숙박","여관-여인숙","알프스산장","알프스산장","서울특별시","강서구","화곡6동"
"BE_IW18-0247","관광/숙박","숙박","여관-여인숙","언덕위에하얀집","언덕위에하얀집","서울특별시","중구","회현동"
"BE_IW18-0248","관광/숙박","숙박","여관-여인숙","에버그린","에버그린","서울특별시","송파구","방이2동"
"BE_IW18-0249","관광/숙박","숙박","여관-여인숙","에버그린","에버그린","서울특별시","강서구","화곡1동"
"BE_IW18-0250","관광/숙박","숙박","여관-여인숙","에스라인","에스라인","서울특별시","강동구","길동"
"BE_IW18-0251","관광/숙박","숙박","여관-여인숙","엠파이어","엠파이어","서울특별시","서대문구","신촌동"
"BE_IW18-0252","관광/숙박","숙박","여관-여인숙","엠플러스","엠플러스","서울특별시","강남구","삼성1동"
"BE_IW18-0253","관광/숙박","숙박","여관-여인숙","여가장","여가장","서울특별시","관악구","조원동"
"BE_IW18-0254","관광/숙박","숙박","여관-여인숙","역삼모텔","역삼모텔","서울특별시","강남구","역삼2동"
"BE_IW18-0255","관광/숙박","숙박","여관-여인숙","영동장","영동장","서울특별시","광진구","자양4동"
"BE_IW18-0256","관광/숙박","숙박","여관-여인숙","오렌지모텔","오렌지모텔","서울특별시","중랑구","망우본동"
"BE_IW18-0257","관광/숙박","숙박","여관-여인숙","오슬로","오슬로","서울특별시","서초구","방배본동"
"BE_IW18-0258","관광/숙박","숙박","여관-여인숙","오투모텔","오투모텔","서울특별시","강서구","화곡1동"
"BE_IW18-0259","관광/숙박","숙박","여관-여인숙","옥수장","옥수장","서울특별시","동작구","신대방1동"
"BE_IW18-0260","관광/숙박","숙박","여관-여인숙","올리브호텔","올리브호텔","서울특별시","송파구","방이2동"
"BE_IW18-0261","관광/숙박","숙박","여관-여인숙","올인모텔","올인모텔","서울특별시","강남구","논현2동"
"BE_IW18-0262","관광/숙박","숙박","여관-여인숙","와우","와우","서울특별시","송파구","방이2동"
"BE_IW18-0263","관광/숙박","숙박","여관-여인숙","우리장","우리장","서울특별시","영등포구","당산1동"
"BE_IW18-0264","관광/숙박","숙박","여관-여인숙","우림장","우림장","서울특별시","구로구","구로2동"
"BE_IW18-0265","관광/숙박","숙박","여관-여인숙","월벽타운","월벽타운","서울특별시","강북구","우이동"
"BE_IW18-0266","관광/숙박","숙박","여관-여인숙","월성여인숙","월성여인숙","서울특별시","구로구","가리봉동"
"BE_IW18-0267","관광/숙박","숙박","여관-여인숙","유니온","유니온","서울특별시","중랑구","묵2동"
"BE_IW18-0268","관광/숙박","숙박","여관-여인숙","은성여관","은성여관","서울특별시","중랑구","상봉2동"
"BE_IW18-0269","관광/숙박","숙박","여관-여인숙","은성장","은성장","서울특별시","영등포구","영등포동"
"BE_IW18-0270","관광/숙박","숙박","여관-여인숙","이지모텔","이지모텔","서울특별시","서대문구","신촌동"
"BE_IW18-0271","관광/숙박","숙박","여관-여인숙","이채","이채","서울특별시","서대문구","신촌동"
"BE_IW18-0272","관광/숙박","숙박","여관-여인숙","인터넷모텔","인터넷모텔","서울특별시","종로구","종로5.6가동"
"BE_IW18-0273","관광/숙박","숙박","여관-여인숙","일신장","일신장","서울특별시","서대문구","신촌동"
"BE_IW18-0274","관광/숙박","숙박","여관-여인숙","임스하우스","임스하우스","서울특별시","종로구","종로1.2.3.4가동"
"BE_IW18-0275","관광/숙박","숙박","여관-여인숙","자바모텔","자바모텔","서울특별시","종로구","숭인2동"
"BE_IW18-0276","관광/숙박","숙박","여관-여인숙","자하문호텔","자하문호텔","서울특별시","종로구","평창동"
"BE_IW18-0277","관광/숙박","숙박","여관-여인숙","제일여인숙","제일여인숙","서울특별시","영등포구","신길6동"
"BE_IW18-0278","관광/숙박","숙박","여관-여인숙","제일장","제일장","서울특별시","관악구","청룡동"
"BE_IW18-0279","관광/숙박","숙박","여관-여인숙","조이나","조이나","서울특별시","강서구","화곡본동"
"BE_IW18-0280","관광/숙박","숙박","여관-여인숙","주노","주노","서울특별시","광진구","중곡3동"
"BE_IW18-0281","관광/숙박","숙박","여관-여인숙","진양여인숙","진양여인숙","서울특별시","구로구","가리봉동"
"BE_IW18-0312","관광/숙박","숙박","여관-여인숙","티롤호텔","티롤호텔","서울특별시","강서구","염창동"
"BE_IW18-0313","관광/숙박","숙박","여관-여인숙","티파니","티파니","서울특별시","강서구","공항동"
"BE_IW18-0160","관광/숙박","숙박","여관-여인숙","라테라","라테라","서울특별시","성동구","왕십리도선동"
"BE_IW18-0161","관광/숙박","숙박","여관-여인숙","락호텔","락호텔","서울특별시","서대문구","신촌동"
"BE_IW18-0162","관광/숙박","숙박","여관-여인숙","램파트","램파트","서울특별시","관악구","남현동"
"BE_IW18-0163","관광/숙박","숙박","여관-여인숙","러브레터","러브레터","서울특별시","강서구","화곡6동"
"BE_IW18-0164","관광/숙박","숙박","여관-여인숙","레인보우장","레인보우장","서울특별시","용산구","한강로동"
"BE_IW18-0165","관광/숙박","숙박","여관-여인숙","렉스모텔","렉스모텔","서울특별시","강서구","화곡1동"
"BE_IW18-0166","관광/숙박","숙박","여관-여인숙","렉스모텔","렉스모텔","서울특별시","동작구","신대방2동"
"BE_IW18-0167","관광/숙박","숙박","여관-여인숙","렉시호텔","렉시호텔","서울특별시","서대문구","신촌동"
"BE_IW18-0168","관광/숙박","숙박","여관-여인숙","로망스","로망스","서울특별시","강동구","천호2동"
"BE_IW18-0169","관광/숙박","숙박","여관-여인숙","로즈힐모텔","로즈힐모텔","서울특별시","중랑구","상봉2동"
"BE_IW18-0170","관광/숙박","숙박","여관-여인숙","루모텔","루","서울특별시","광진구","구의1동"
"BE_IW18-0171","관광/숙박","숙박","여관-여인숙","루모텔","루모텔","서울특별시","중구","광희동"
"BE_IW18-0172","관광/숙박","숙박","여관-여인숙","르네상스","르네상스","서울특별시","강서구","화곡1동"
"BE_IW18-0173","관광/숙박","숙박","여관-여인숙","리버모텔","리버모텔","서울특별시","광진구","군자동"
"BE_IW18-0174","관광/숙박","숙박","여관-여인숙","리베라","리베라","서울특별시","중랑구","상봉2동"
"BE_IW18-0175","관광/숙박","숙박","여관-여인숙","리오모텔","리오모텔","서울특별시","동대문구","용신동"
"BE_IW18-0176","관광/숙박","숙박","여관-여인숙","리츠","리츠","서울특별시","강남구","신사동"
"BE_IW18-0177","관광/숙박","숙박","여관-여인숙","마루","마루","서울특별시","중구","소공동"
"BE_IW18-0178","관광/숙박","숙박","여관-여인숙","메트로/21호텔","메트로21호텔","서울특별시","송파구","방이2동"
"BE_IW18-0179","관광/숙박","숙박","여관-여인숙","명동장","명동장","서울특별시","구로구","구로4동"
"BE_IW18-0180","관광/숙박","숙박","여관-여인숙","명동파크","명동파크","서울특별시","관악구","청룡동"
"BE_IW18-0181","관광/숙박","숙박","여관-여인숙","명보장모텔","명보장모텔","서울특별시","관악구","신림동"
"BE_IW18-0182","관광/숙박","숙박","여관-여인숙","명성파크","명성파크","서울특별시","동대문구","전농1동"
"BE_IW18-0183","관광/숙박","숙박","여관-여인숙","모아모아모텔","모아모아모텔","서울특별시","관악구","신림동"
"BE_IW18-0184","관광/숙박","숙박","여관-여인숙","모텔그리고","모텔그리고","서울특별시","광진구","화양동"
"BE_IW18-0185","관광/숙박","숙박","여관-여인숙","모텔몽","모텔몽","서울특별시","종로구","종로1.2.3.4가동"
"BE_IW18-0186","관광/숙박","숙박","여관-여인숙","목화모텔","목화모텔","서울특별시","서초구","서초3동"
"BE_IW18-0187","관광/숙박","숙박","여관-여인숙","몽블랑","몽블랑","서울특별시","영등포구","영등포동"
"BE_IW18-0188","관광/숙박","숙박","여관-여인숙","미라지모텔","미라지모텔","서울특별시","종로구","부암동"
"BE_IW18-0189","관광/숙박","숙박","여관-여인숙","미림장","미림장","서울특별시","강남구","삼성2동"
"BE_IW18-0190","관광/숙박","숙박","여관-여인숙","미모텔","미모텔","서울특별시","중랑구","상봉2동"
"BE_IW18-0191","관광/숙박","숙박","여관-여인숙","미조모텔","미조모텔","서울특별시","중구","명동"
"BE_IW18-0192","관광/숙박","숙박","여관-여인숙","미화장","미화장","서울특별시","영등포구","신길1동"
"BE_IW18-0193","관광/숙박","숙박","여관-여인숙","밀라노","밀라노","서울특별시","구로구","구로5동"
"BE_IW18-0194","관광/숙박","숙박","여관-여인숙","밀레니엄","밀레니엄","서울특별시","서대문구","신촌동"
"BE_IW18-0195","관광/숙박","숙박","여관-여인숙","백악관모텔","백악관모텔","서울특별시","서대문구","신촌동"
"BE_IW18-0196","관광/숙박","숙박","여관-여인숙","백조장","백조장","서울특별시","양천구","신월1동"
"BE_IW18-0197","관광/숙박","숙박","여관-여인숙","백합장","백합장","서울특별시","관악구","낙성대동"
"BE_IW18-0198","관광/숙박","숙박","여관-여인숙","베리식스호텔","베리식스호텔","서울특별시","강남구","역삼2동"
"BE_IW18-0199","관광/숙박","숙박","여관-여인숙","벤허호텔","벤허호텔","서울특별시","중구","다산동"
"BE_IW18-0200","관광/숙박","숙박","여관-여인숙","보명장","보명장","서울특별시","송파구","잠실본동"
"BE_IW18-0201","관광/숙박","숙박","여관-여인숙","보보스","보보스","서울특별시","관악구","청룡동"
"BE_IW18-0202","관광/숙박","숙박","여관-여인숙","보성장","보성장","서울특별시","마포구","공덕동"
"BE_IW18-0203","관광/숙박","숙박","여관-여인숙","보성장","보성장","서울특별시","영등포구","영등포동"
"BE_IW18-0204","관광/숙박","숙박","여관-여인숙","봉산장","봉산장","서울특별시","성동구","왕십리도선동"
"BE_IW18-0205","관광/숙박","숙박","여관-여인숙","부르네모텔","부르네모텔","서울특별시","성동구","왕십리도선동"
"BE_IW18-0206","관광/숙박","숙박","여관-여인숙","부원장","부원장","서울특별시","동작구","사당1동"
"BE_IW18-0207","관광/숙박","숙박","여관-여인숙","부흥여인숙","부흥여인숙","서울특별시","영등포구","대림1동"
"BE_IW18-0208","관광/숙박","숙박","여관-여인숙","뷰모텔","뷰모텔","서울특별시","관악구","신림동"
"BE_IW18-0209","관광/숙박","숙박","여관-여인숙","뷰티모텔","뷰티모텔","서울특별시","관악구","남현동"
"BE_IW18-0210","관광/숙박","숙박","여관-여인숙","블루모텔","블루모텔","서울특별시","서대문구","신촌동"
"BE_IW18-0211","관광/숙박","숙박","여관-여인숙","산타페","산타페","서울특별시","강동구","둔촌2동"
"BE_IW18-0212","관광/숙박","숙박","여관-여인숙","삼성여인숙","삼성여인숙","서울특별시","영등포구","당산1동"
"BE_IW18-0213","관광/숙박","숙박","여관-여인숙","삼성장","삼성장","서울특별시","용산구","보광동"
"BE_IW18-0214","관광/숙박","숙박","여관-여인숙","삼아장","삼아장","서울특별시","강남구","논현2동"
"BE_IW18-0215","관광/숙박","숙박","여관-여인숙","삼원장","삼원장","서울특별시","영등포구","대림2동"
"BE_IW18-0216","관광/숙박","숙박","여관-여인숙","삼원장","삼원장","서울특별시","관악구","신림동"
"BE_IW18-0217","관광/숙박","숙박","여관-여인숙","샐몬모텔","샐몬모텔","서울특별시","중랑구","상봉2동"
"BE_IW18-0218","관광/숙박","숙박","여관-여인숙","샤르망모텔","샤르망모텔","서울특별시","강서구","화곡본동"
"BE_IW18-0219","관광/숙박","숙박","여관-여인숙","서광장모텔","서광장모텔","서울특별시","관악구","조원동"
"BE_IW18-0220","관광/숙박","숙박","여관-여인숙","서림장","서림장","서울특별시","용산구","한강로동"
"BE_IW18-0283","관광/숙박","숙박","여관-여인숙","천수장","천수장","서울특별시","성동구","성수2가1동"
"BE_IW18-0284","관광/숙박","숙박","여관-여인숙","청수장","청수장","서울특별시","구로구","가리봉동"
"BE_IW18-0285","관광/숙박","숙박","여관-여인숙","청수장","청수장","서울특별시","중구","회현동"
"BE_IW18-0286","관광/숙박","숙박","여관-여인숙","청운장","청운장","서울특별시","강동구","천호3동"
"BE_IW18-0287","관광/숙박","숙박","여관-여인숙","청원장","청원장","서울특별시","중랑구","중화2동"
"BE_IW18-0288","관광/숙박","숙박","여관-여인숙","첼로","첼로","서울특별시","용산구","남영동"
"BE_IW18-0289","관광/숙박","숙박","여관-여인숙","초실장","초실장","서울특별시","동대문구","청량리동"
"BE_IW18-0290","관광/숙박","숙박","여관-여인숙","초원장","초원장","서울특별시","종로구","숭인2동"
"BE_IW18-0291","관광/숙박","숙박","여관-여인숙","초원파크","초원파크","서울특별시","관악구","신림동"
"BE_IW18-0292","관광/숙박","숙박","여관-여인숙","칸나","칸나","서울특별시","송파구","송파1동"
"BE_IW18-0293","관광/숙박","숙박","여관-여인숙","케이에스텔","케이에스텔","서울특별시","관악구","청룡동"
"BE_IW18-0294","관광/숙박","숙박","여관-여인숙","큐브모텔","큐브모텔","서울특별시","관악구","신림동"
"BE_IW18-0295","관광/숙박","숙박","여관-여인숙","크럭스","크럭스","서울특별시","서대문구","신촌동"
"BE_IW18-0296","관광/숙박","숙박","여관-여인숙","크로싱호텔","크로싱호텔","서울특별시","강서구","화곡1동"
"BE_IW18-0297","관광/숙박","숙박","여관-여인숙","크로체모텔","크로체모텔","서울특별시","강서구","화곡본동"
"BE_IW18-0298","관광/숙박","숙박","여관-여인숙","클리오모텔","클리오모텔","서울특별시","관악구","청룡동"
"BE_IW18-0299","관광/숙박","숙박","여관-여인숙","탑모텔","탑모텔","서울특별시","동작구","신대방1동"
"BE_IW18-0300","관광/숙박","숙박","여관-여인숙","탑텔","탑텔","서울특별시","성북구","삼선동"
"BE_IW18-0301","관광/숙박","숙박","여관-여인숙","태림장","태림장","서울특별시","동대문구","제기동"
"BE_IW18-0302","관광/숙박","숙박","여관-여인숙","태화장","태화장","서울특별시","광진구","능동"
"BE_IW18-0303","관광/숙박","숙박","여관-여인숙","터치모텔","터치모텔","서울특별시","서대문구","신촌동"
"BE_IW18-0304","관광/숙박","숙박","여관-여인숙","테마","테마","서울특별시","광진구","화양동"
"BE_IW18-0305","관광/숙박","숙박","여관-여인숙","테마21","테마21","서울특별시","구로구","구로5동"
"BE_IW18-0306","관광/숙박","숙박","여관-여인숙","테마25시","테마25시","서울특별시","관악구","낙성대동"
"BE_IW18-0307","관광/숙박","숙박","여관-여인숙","테마모텔","테마모텔","서울특별시","동대문구","전농1동"
"BE_IW18-0308","관광/숙박","숙박","여관-여인숙","테마호텔","테마호텔","서울특별시","광진구","구의3동"
"BE_IW18-0309","관광/숙박","숙박","여관-여인숙","투헤븐","투헤븐","서울특별시","종로구","종로1.2.3.4가동"
"BE_IW18-0310","관광/숙박","숙박","여관-여인숙","트리플알","트리플알","서울특별시","강동구","길동"
"BE_IW18-0311","관광/숙박","숙박","여관-여인숙","티모텔","티","서울특별시","강남구","삼성2동"