"순번","시설명","다국어구분","간략소개 재생 URL","상세소개 재생 URL"
"73","초고공방고드랫돌","한국어","http://videos.seoul.go.kr/S4V6P6","http://videos.seoul.go.kr/xNr34M"
"74","초고공방고드랫돌","영어","http://videos.seoul.go.kr/EmTbBu","http://videos.seoul.go.kr/I0Um1Y"
"75","초고공방고드랫돌","중국어","http://videos.seoul.go.kr/NuJjVW","http://videos.seoul.go.kr/p0P0jQ"
"76","초고공방고드랫돌","일어","http://videos.seoul.go.kr/S0IldS","http://videos.seoul.go.kr/nUCdlp"
"77","한복공방","한국어","http://videos.seoul.go.kr/aiDa2s","http://videos.seoul.go.kr/npRDFu"
"78","한복공방","영어","http://videos.seoul.go.kr/bcasWu","http://videos.seoul.go.kr/6oP54s"
"79","한복공방","중국어","http://videos.seoul.go.kr/yxrdTf","http://videos.seoul.go.kr/6MOHXI"
"80","한복공방","일어","http://videos.seoul.go.kr/AKmuDL","http://videos.seoul.go.kr/YXVzsi"
"81","한지공방","한국어","http://videos.seoul.go.kr/+8f2hw","http://videos.seoul.go.kr/+6VQiP"
"82","한지공방","영어","http://videos.seoul.go.kr/lbl0Eg","http://videos.seoul.go.kr/Afjhhb"
"83","한지공방","중국어","http://videos.seoul.go.kr/etX2Wc","http://videos.seoul.go.kr/Vho8po"
"84","한지공방","일어","http://videos.seoul.go.kr/UHaBMj","http://videos.seoul.go.kr/DVphOX"
"1","가회민화박물관","한국어","http://videos.seoul.go.kr/VZ6iKg","http://videos.seoul.go.kr/r0YYoi"
"2","가회민화박물관","영어","http://videos.seoul.go.kr/7sKbTd","http://videos.seoul.go.kr/PMZNho"
"3","가회민화박물관","중국어","http://videos.seoul.go.kr/36I646","http://videos.seoul.go.kr/mySjq8"
"4","가회민화박물관","일어","http://videos.seoul.go.kr/JBb1bv","http://videos.seoul.go.kr/Pw0AO1"
"5","국악사랑","한국어","http://videos.seoul.go.kr/p++4Wd","http://videos.seoul.go.kr/bGWRws"
"6","국악사랑","영어","http://videos.seoul.go.kr/FJm9JW","http://videos.seoul.go.kr/axc+Ox"
"7","국악사랑","중국어","http://videos.seoul.go.kr/oh9m5y","http://videos.seoul.go.kr/x4kyOl"
"8","국악사랑","일어","http://videos.seoul.go.kr/Wlc8tW","http://videos.seoul.go.kr/KyKNi8"
"9","금박연","한국어","http://videos.seoul.go.kr/kKjmpr","http://videos.seoul.go.kr/s7IoSg"
"10","금박연","영어","http://videos.seoul.go.kr/CE0IsO","http://videos.seoul.go.kr/XWTJFN"
"11","금박연","중국어","http://videos.seoul.go.kr/0kyjVn","http://videos.seoul.go.kr/DYcz8g"
"12","금박연","일어","http://videos.seoul.go.kr/0UZ+R7","http://videos.seoul.go.kr/fN8Q2k"
"13","나전과옻칠","한국어","http://videos.seoul.go.kr/pRnEBm","http://videos.seoul.go.kr/9kWEjF"
"14","나전과옻칠","영어","http://videos.seoul.go.kr/tyN2Ou","http://videos.seoul.go.kr/xSLH+c"
"15","나전과옻칠","중국어","http://videos.seoul.go.kr/Lh3GSj","http://videos.seoul.go.kr/ussy+y"
"16","나전과옻칠","일어","http://videos.seoul.go.kr/immZgO","http://videos.seoul.go.kr/7guf91"
"17","닥종이인형공방","한국어","http://videos.seoul.go.kr/boPVVb","http://videos.seoul.go.kr/WMFEXr"
"18","닥종이인형공방","영어","http://videos.seoul.go.kr/+r4oWc","http://videos.seoul.go.kr/sucM55"
"19","닥종이인형공방","중국어","http://videos.seoul.go.kr/4tyQ0q","http://videos.seoul.go.kr/OdlxrE"
"20","닥종이인형공방","일어","http://videos.seoul.go.kr/PTl2wn","http://videos.seoul.go.kr/kX6XPs"
"21","동림매듭공방","한국어","http://videos.seoul.go.kr/z32CLQ","http://videos.seoul.go.kr/er4+a9"
"22","동림매듭공방","영어","http://videos.seoul.go.kr/V3BqQ6","http://videos.seoul.go.kr/76IMdC"
"23","동림매듭공방","중국어","http://videos.seoul.go.kr/Tn7C09","http://videos.seoul.go.kr/+UYuYa"
"24","동림매듭공방","일어","http://videos.seoul.go.kr/kPowG4","http://videos.seoul.go.kr/MJQtCh"
"25","두게스트하우스","한국어","http://videos.seoul.go.kr/Gv6a6y","http://videos.seoul.go.kr/U0Y4Xy"
"26","두게스트하우스","영어","http://videos.seoul.go.kr/1n+RyJ","http://videos.seoul.go.kr/BZQBlp"
"27","두게스트하우스","중국어","http://videos.seoul.go.kr/OhIpCJ","http://videos.seoul.go.kr/rOMdzX"
"28","두게스트하우스","일어","http://videos.seoul.go.kr/MQTM86","http://videos.seoul.go.kr/qgKC6C"
"29","북촌문화센터","한국어","http://videos.seoul.go.kr/I1mhhx","http://videos.seoul.go.kr/z7ryxd"
"30","북촌문화센터","영어","http://videos.seoul.go.kr/LWGPci","http://videos.seoul.go.kr/R6bR2F"
"31","북촌문화센터","중국어","http://videos.seoul.go.kr/7ypuGD","http://videos.seoul.go.kr/btXKf6"
"32","북촌문화센터","일어","http://videos.seoul.go.kr/P1YEa4","http://videos.seoul.go.kr/VrvyC4"
"33","북촌상회","한국어","http://videos.seoul.go.kr/KJ+7Uo","http://videos.seoul.go.kr/9GBZUY"
"34","북촌상회","영어","http://videos.seoul.go.kr/1DNM2A","http://videos.seoul.go.kr/CP0jYi"
"35","북촌상회","중국어","http://videos.seoul.go.kr/t1vZsl","http://videos.seoul.go.kr/zZbcd1"
"36","북촌상회","일어","http://videos.seoul.go.kr/tqBCI8","http://videos.seoul.go.kr/pKfIRe"
"37","북촌한옥체험관","한국어","http://videos.seoul.go.kr/9RA6u8","http://videos.seoul.go.kr/3T0RuZ"
"38","북촌한옥체험관","영어","http://videos.seoul.go.kr/H2LDw1","http://videos.seoul.go.kr/KG6VvU"
"39","북촌한옥체험관","중국어","http://videos.seoul.go.kr/hFFHmJ","http://videos.seoul.go.kr/VVT7ep"
"40","북촌한옥체험관","일어","http://videos.seoul.go.kr/iUPQ+7","http://videos.seoul.go.kr/zdXQTh"
"41","옻칠공방","한국어","http://videos.seoul.go.kr/nImg30","http://videos.seoul.go.kr/JPY28m"
"42","옻칠공방","영어","http://videos.seoul.go.kr/6UMxBN","http://videos.seoul.go.kr/RU02xD"
"43","옻칠공방","중국어","http://videos.seoul.go.kr/pF2R6J","http://videos.seoul.go.kr/JAK+pg"
"44","옻칠공방","일어","http://videos.seoul.go.kr/0TL0t4","http://videos.seoul.go.kr/9OV0QB"
"45","우리빛깔공방","한국어","http://videos.seoul.go.kr/Eqqm8b","http://videos.seoul.go.kr/kD1pPS"
"46","우리빛깔공방","영어","http://videos.seoul.go.kr/3g8SNu","http://videos.seoul.go.kr/2E5HGW"
"47","우리빛깔공방","중국어","http://videos.seoul.go.kr/dyA7St","http://videos.seoul.go.kr/drjuTX"
"48","우리빛깔공방","일어","http://videos.seoul.go.kr/FFZnTW","http://videos.seoul.go.kr/jzEFcu"
"49","우리집","한국어","http://videos.seoul.go.kr/DmoElZ","http://videos.seoul.go.kr/X9F+kn"
"50","우리집","영어","http://videos.seoul.go.kr/EKFJ0F","http://videos.seoul.go.kr/KFBXB0"
"51","우리집","중국어","http://videos.seoul.go.kr/YC2CGB","http://videos.seoul.go.kr/8KUCKw"
"52","우리집","일어","http://videos.seoul.go.kr/rsAv9L","http://videos.seoul.go.kr/X2HJ2G"
"53","자수공방","한국어","http://videos.seoul.go.kr/6wpeOA","http://videos.seoul.go.kr/B65yx7"
"54","자수공방","영어","http://videos.seoul.go.kr/GKnRyR","http://videos.seoul.go.kr/17ew0w"
"55","자수공방","중국어","http://videos.seoul.go.kr/R9UcQb","http://videos.seoul.go.kr/x7jgdR"
"56","자수공방","일어","http://videos.seoul.go.kr/hPUV23","http://videos.seoul.go.kr/ReUiU9"
"57","전통공예체험관","한국어","http://videos.seoul.go.kr/M71gq7","http://videos.seoul.go.kr/JHSq3i"
"58","전통공예체험관","영어","http://videos.seoul.go.kr/Twk9+h","http://videos.seoul.go.kr/bgKsoK"
"59","전통공예체험관","중국어","http://videos.seoul.go.kr/jK0sdP","http://videos.seoul.go.kr/nUEO0M"
"60","전통공예체험관","일어","http://videos.seoul.go.kr/8QCwOY","http://videos.seoul.go.kr/BnfcXg"
"61","전통연공방","한국어","http://videos.seoul.go.kr/p0mius","http://videos.seoul.go.kr/bxdnZz"
"62","전통연공방","영어","http://videos.seoul.go.kr/95g17N","http://videos.seoul.go.kr/B0YuKt"
"63","전통연공방","중국어","http://videos.seoul.go.kr/4MYRK3","http://videos.seoul.go.kr/74D50X"
"64","전통연공방","일어","http://videos.seoul.go.kr/eFN5xN","http://videos.seoul.go.kr/cE05zM"
"65","전통혼례보공방","한국어","http://videos.seoul.go.kr/Xyc+PU","http://videos.seoul.go.kr/0btFfL"
"66","전통혼례보공방","영어","http://videos.seoul.go.kr/kMuBPv","http://videos.seoul.go.kr/E2I1fo"
"67","전통혼례보공방","중국어","http://videos.seoul.go.kr/GPWKbp","http://videos.seoul.go.kr/ec9olE"
"68","전통혼례보공방","일어","http://videos.seoul.go.kr/NsW70m","http://videos.seoul.go.kr/TtZmv6"
"69","지형공방홍벽헌","한국어","http://videos.seoul.go.kr/1xAGiR","http://videos.seoul.go.kr/zlkefB"
"70","지형공방홍벽헌","영어","http://videos.seoul.go.kr/5VzX0y","http://videos.seoul.go.kr/QoFIuo"
"71","지형공방홍벽헌","중국어","http://videos.seoul.go.kr/uWkzXq","http://videos.seoul.go.kr/AiA0Sj"
"72","지형공방홍벽헌","일어","http://videos.seoul.go.kr/fElGhx","http://videos.seoul.go.kr/PpvFbB"