"서비스구분","서비스ID","대분류명","소분류명","서비스상태","서비스명","결제방법","장소명","서비스대상","바로가기URL","장소X좌표","장소Y좌표","서비스개시시작일시","서비스개시종료일시","접수시작일시","접수종료일시","지역명"
"자체","S200113142005979558","시설대관","회의실","접수중","강동구 강일동 자치회관 해오름(3층)","무료","강일동주민센터-해오름실","성인","http://yeyak.seoul.go.kr/reservation/view.web?rsvsvcid=S200113142005979558","37.565042019206615","127.17390630538449","2020-01-13 00:00:00.0","2020-12-31 00:00:00.0","2020-01-13 09:00:00.0","2020-12-20 23:50:00.0","강동구"
"자체","S191220163111497175","시설대관","강의실","접수중","강동구 성내2동자치회관 새미실(지하1층)","유료(요금안내문의)","성내2동주민센터","제한없음","http://yeyak.seoul.go.kr/reservation/view.web?rsvsvcid=S191220163111497175","37.532428846038535","127.12953910613561","2019-12-20 00:00:00.0","2020-12-31 00:00:00.0","2019-12-23 00:00:00.0","2020-12-31 23:00:00.0","강동구"
"자체","S200103144124329227","시설대관","강의실","접수중","강동구 성내2동자치회관 새별실(지하1층)","유료(요금안내문의)","성내2동주민센터","제한없음","http://yeyak.seoul.go.kr/reservation/view.web?rsvsvcid=S200103144124329227","37.532428846038535","127.12953910613561","2020-01-03 00:00:00.0","2020-12-31 00:00:00.0","2020-01-03 18:00:00.0","2020-12-31 09:00:00.0","강동구"
"자체","S200103145308039901","시설대관","다목적실","접수중","강동구 성내2동자치회관 다목적실(3층)","유료(요금안내문의)","성내2동주민센터","제한없음","http://yeyak.seoul.go.kr/reservation/view.web?rsvsvcid=S200103145308039901","37.532428846038535","127.12953910613561","2020-01-03 00:00:00.0","2020-12-31 00:00:00.0","2020-01-03 09:00:00.0","2020-12-31 18:00:00.0","강동구"
"자체","S200103150350179963","시설대관","다목적실","접수중","강동구 성내2동자치회관 다목적실(3층)","유료(요금안내문의)","성내2동주민센터","제한없음","http://yeyak.seoul.go.kr/reservation/view.web?rsvsvcid=S200103150350179963","37.532428846038535","127.12953910613561","2020-01-03 00:00:00.0","2020-12-31 00:00:00.0","2020-01-03 09:00:00.0","2020-12-31 18:00:00.0","강동구"
"자체","S191212173110487677","시설대관","다목적실","접수중","강동구 둔촌2동 자치회관 다목적실(2층)","무료","둔촌2동 주민센터","제한없음","http://yeyak.seoul.go.kr/reservation/view.web?rsvsvcid=S191212173110487677","","","2019-12-01 00:00:00.0","2020-12-31 00:00:00.0","2019-12-01 09:00:00.0","2020-12-31 23:00:00.0","강동구"
"자체","S191217100929336781","시설대관","강의실","접수중","상일동 주민센터 3층 2강좌실","유료","상일동 주민센터 3층 2강좌실","제한없음","http://yeyak.seoul.go.kr/reservation/view.web?rsvsvcid=S191217100929336781","37.5505837475","127.1683004192","2020-01-01 00:00:00.0","2020-12-31 00:00:00.0","2020-01-01 00:00:00.0","2020-12-31 18:00:00.0","강동구"
"자체","S191217101653881399","시설대관","다목적실","접수중","상일동 주민센터 3층 다목적실","유료","상일동 주민센터 3층 2강좌실","제한없음","http://yeyak.seoul.go.kr/reservation/view.web?rsvsvcid=S191217101653881399","37.5505837475","127.1683004192","2020-01-01 00:00:00.0","2020-12-31 00:00:00.0","2020-01-01 00:00:00.0","2020-12-31 18:00:00.0","강동구"
"자체","S191228212252338133","시설대관","다목적실","접수중","강동구 고덕2동자치회관 다목적실(2층)","무료","고덕2동자치회관 다목적실","제한없음","http://yeyak.seoul.go.kr/reservation/view.web?rsvsvcid=S191228212252338133","37.56050747381413","127.16435688035044","2020-01-01 00:00:00.0","2020-12-31 00:00:00.0","2020-01-01 00:00:00.0","2020-12-31 00:00:00.0","강동구"
"자체","S191227134709402266","시설대관","다목적실","접수중","강동구 천호3동 자치회관 다목적실(3층)","무료","천호3동주민센터 3층 다목적실","제한없음","http://yeyak.seoul.go.kr/reservation/view.web?rsvsvcid=S191227134709402266","37.53970228967786","127.12983908782888","2020-01-01 00:00:00.0","2020-12-31 00:00:00.0","2020-01-01 00:00:00.0","2020-12-31 00:00:00.0","강동구"
"자체","S191227135452445046","시설대관","주민사랑방","접수중","강동구 천호3동 자치회관 사랑방(3층)","무료","천호3동주민센터 3층 주민사랑방","제한없음","http://yeyak.seoul.go.kr/reservation/view.web?rsvsvcid=S191227135452445046","37.53976985206623","127.12985051994104","2020-01-01 00:00:00.0","2020-12-31 00:00:00.0","2020-01-01 09:00:00.0","2020-12-31 18:00:00.0","강동구"
"자체","S191123142149467329","시설대관","기타","예약일시중지","2020년 드론공원","무료","광나루한강공원>드론공원","제한없음","http://yeyak.seoul.go.kr/reservation/view.web?rsvsvcid=S191123142149467329","37.54737814002775","127.11936463145603","2019-12-01 00:00:00.0","2020-12-31 00:00:00.0","2019-12-01 00:00:00.0","2020-12-31 00:00:00.0","강동구"
"자체","S191224133903399422","시설대관","강당","접수중","강동구 암사3동 자치회관 강당 (5층)","유료(요금안내문의)","암사3동 자치회관","제한없음","http://yeyak.seoul.go.kr/reservation/view.web?rsvsvcid=S191224133903399422","37.554995006708864","127.14078224386298","2020-01-02 00:00:00.0","2020-12-31 00:00:00.0","2020-01-02 09:00:00.0","2020-12-31 23:59:00.0","강동구"
"자체","S191224140218669523","시설대관","다목적실","접수중","강동구 암사3동 자치회관 다목적실 1 (4층)","유료(요금안내문의)","암사3동 자치회관","제한없음","http://yeyak.seoul.go.kr/reservation/view.web?rsvsvcid=S191224140218669523","37.554995006708864","127.14078224386298","2020-01-02 00:00:00.0","2020-12-31 00:00:00.0","2020-01-02 09:00:00.0","2020-12-31 18:00:00.0","강동구"
"자체","S191224141013302899","시설대관","다목적실","접수중","강동구 암사3동 자치회관 다목적실 2 (4층)","유료(요금안내문의)","암사3동 자치회관","제한없음","http://yeyak.seoul.go.kr/reservation/view.web?rsvsvcid=S191224141013302899","37.554995006708864","127.14078224386298","2020-01-02 00:00:00.0","2020-12-31 00:00:00.0","2020-01-02 09:00:00.0","2020-12-31 23:59:00.0","강동구"
"자체","S191224143840452264","시설대관","회의실","접수중","강동구 암사3동 자치회관 회의실(3층)","유료(요금안내문의)","암사3동 자치회관","제한없음","http://yeyak.seoul.go.kr/reservation/view.web?rsvsvcid=S191224143840452264","37.554995006708864","127.14078224386298","2020-01-02 00:00:00.0","2020-12-31 00:00:00.0","2020-01-02 09:00:00.0","2020-12-31 23:59:00.0","강동구"
"자체","S191231142917542137","시설대관","회의실","접수중","강동구 천호2동 주민센터 회의실(3층)","유료","천호2동 주민센터","제한없음","http://yeyak.seoul.go.kr/reservation/view.web?rsvsvcid=S191231142917542137","37.5434507066","127.1254302743","2020-01-01 00:00:00.0","2020-12-31 00:00:00.0","2020-01-02 10:00:00.0","2020-12-31 00:00:00.0","강동구"
"자체","S191209133359332172","시설대관","회의실","예약일시중지","강동구 암사2동 자치회관 회의실(3층)","유료","암사2동 주민센터","제한없음","http://yeyak.seoul.go.kr/reservation/view.web?rsvsvcid=S191209133359332172","37.551705483110844","127.1272728956916","2019-12-12 00:00:00.0","2020-06-30 00:00:00.0","2019-12-12 09:00:00.0","2020-06-22 18:00:00.0","강동구"
"자체","S191210155646824044","시설대관","강의실","예약일시중지","강동구 암사2동 자치회관 제1강의실(3층)	","유료","암사2동 주민센터","제한없음","http://yeyak.seoul.go.kr/reservation/view.web?rsvsvcid=S191210155646824044","37.551705483110844","127.1272728956916","2019-12-12 00:00:00.0","2020-06-30 00:00:00.0","2019-12-12 09:00:00.0","2020-06-22 18:00:00.0","강동구"
"자체","S191210164412617043","시설대관","다목적실","예약일시중지","강동 암사2동 자치회관 다목적실(3층)","유료","암사2동 주민센터","제한없음","http://yeyak.seoul.go.kr/reservation/view.web?rsvsvcid=S191210164412617043","37.551705483110844","127.1272728956916","2019-12-12 00:00:00.0","2020-06-30 00:00:00.0","2019-12-12 09:00:00.0","2020-06-22 18:00:00.0","강동구"
"자체","S191228204921321447","시설대관","회의실","접수중","강동구 고덕2동 자치회관 소회의실(2층)","무료","고덕2동자치회관 회의실","제한없음","http://yeyak.seoul.go.kr/reservation/view.web?rsvsvcid=S191228204921321447","37.56050747381413","127.16435688035044","2020-01-01 00:00:00.0","2020-12-31 00:00:00.0","2020-01-01 00:00:00.0","2020-12-31 00:00:00.0","강동구"
"자체","S191228213226504958","시설대관","회의실","접수중","강동구 고덕2동 자치회관 소회의실(2층)","무료","고덕2동자치회관 회의실","제한없음","http://yeyak.seoul.go.kr/reservation/view.web?rsvsvcid=S191228213226504958","37.56050747381413","127.16435688035044","2020-01-01 00:00:00.0","2020-12-31 00:00:00.0","2020-01-01 00:00:00.0","2020-12-31 00:00:00.0","강동구"
"자체","S200117133656332478","시설대관","회의실","접수중","강동구 천호1동 자치회관 회의실(2층)","무료","천호1동 자치회관","제한없음","http://yeyak.seoul.go.kr/reservation/view.web?rsvsvcid=S200117133656332478","37.54502023777883","127.13679844494058","2020-01-17 00:00:00.0","2020-12-31 00:00:00.0","2020-01-17 09:00:00.0","2020-12-31 23:00:00.0","강동구"
"자체","S191217203229310252","시설대관","강의실","접수중","강동구 암사1동 자치회관 제2강의실(2층)","무료","암사1동 주민센터","제한없음","http://yeyak.seoul.go.kr/reservation/view.web?rsvsvcid=S191217203229310252","37.55236643263739","127.13570734539529","2020-01-01 00:00:00.0","2020-12-31 00:00:00.0","2020-01-01 09:00:00.0","2020-12-31 18:00:00.0","강동구"
"자체","S191226122556848256","시설대관","회의실","접수중","강동구 암사1동 자치회관 주민자치위원회실(2층)","무료","암사1동 주민센터","제한없음","http://yeyak.seoul.go.kr/reservation/view.web?rsvsvcid=S191226122556848256","37.55236643263739","127.13570734539529","2020-01-01 00:00:00.0","2020-12-31 00:00:00.0","2020-01-01 00:00:00.0","2020-12-31 00:00:00.0","강동구"
"자체","S191226152001555759","시설대관","강의실","접수중","강동구 암사1동 자치회관 제1강의실(2층)","무료","암사1동 주민센터","제한없음","http://yeyak.seoul.go.kr/reservation/view.web?rsvsvcid=S191226152001555759","37.55236643263739","127.13570734539529","2020-01-01 00:00:00.0","2020-12-31 00:00:00.0","2020-01-01 09:00:00.0","2020-12-31 18:00:00.0","강동구"
"자체","S191226171834461285","시설대관","다목적실","접수중","강동구 암사1동 자치회관 다목적실(1층)","무료","암사1동 주민센터","제한없음","http://yeyak.seoul.go.kr/reservation/view.web?rsvsvcid=S191226171834461285","37.55236643263739","127.13570734539529","2020-01-01 00:00:00.0","2020-12-31 00:00:00.0","2020-01-01 09:00:00.0","2020-12-31 18:00:00.0","강동구"
"자체","S200109134757514941","시설대관","회의실","접수중","강동구 길동 주민센터 회의실(3층)","무료","길동 주민센터","제한없음","http://yeyak.seoul.go.kr/reservation/view.web?rsvsvcid=S200109134757514941","37.53922095819191","127.14619729864735","2020-01-09 00:00:00.0","2020-12-31 00:00:00.0","2020-01-09 09:00:00.0","2020-12-21 18:00:00.0","강동구"
"자체","S191231164346232819","시설대관","다목적실","예약일시중지","강동구 명일2동 자치회관 다목적실(2층)","무료","강동구 명일2동 주민센터","제한없음","http://yeyak.seoul.go.kr/reservation/view.web?rsvsvcid=S191231164346232819","37.5463647887","127.1513532179","2019-12-31 00:00:00.0","2020-12-31 00:00:00.0","2019-12-31 00:00:00.0","2020-12-31 00:00:00.0","강동구"
"자체","S191231170747564404","시설대관","회의실","예약일시중지","강동구 명일2동 자치회관 소회의실(2층)","무료","강동구 명일2동 주민센터","제한없음","http://yeyak.seoul.go.kr/reservation/view.web?rsvsvcid=S191231170747564404","37.5463647887","127.1513532179","2019-12-31 00:00:00.0","2020-12-31 00:00:00.0","2019-12-31 00:00:00.0","2020-12-31 00:00:00.0","강동구"
"자체","S191111200540365471","시설대관","녹화/촬영","예약일시중지","2020년 영화촬영1(주간)-광나루","유료","광나루한강공원","제한없음","http://yeyak.seoul.go.kr/reservation/view.web?rsvsvcid=S191111200540365471","37.54996645867258","127.12224993918046","2019-12-01 00:00:00.0","2020-12-31 00:00:00.0","2019-12-01 00:00:00.0","2020-12-31 00:00:00.0","강동구"
"자체","S191111200902481295","시설대관","녹화/촬영","예약일시중지","2020년 영화촬영1(야간)-광나루","유료","광나루한강공원","제한없음","http://yeyak.seoul.go.kr/reservation/view.web?rsvsvcid=S191111200902481295","37.54996645867258","127.12224993918046","2019-12-01 00:00:00.0","2020-12-31 00:00:00.0","2019-12-01 00:00:00.0","2020-12-31 00:00:00.0","강동구"
"자체","S191111201232976013","시설대관","녹화/촬영","예약일시중지","2020년 녹화1-광나루","유료","광나루한강공원","제한없음","http://yeyak.seoul.go.kr/reservation/view.web?rsvsvcid=S191111201232976013","37.54996645867258","127.12224993918046","2019-12-01 00:00:00.0","2020-12-31 00:00:00.0","2019-12-01 00:00:00.0","2020-12-31 00:00:00.0","강동구"
"자체","S191224183211410565","시설대관","다목적실","접수중","강동구 명일1동 자치회관 다목적실(3층)","무료","명일1동 자치회관 ","제한없음","http://yeyak.seoul.go.kr/reservation/view.web?rsvsvcid=S191224183211410565","37.54976290707913","127.14598250401684","2019-12-26 00:00:00.0","2020-12-31 00:00:00.0","2019-12-26 00:00:00.0","2020-12-23 23:59:00.0","강동구"
"자체","S191224194444405676","시설대관","강의실","접수중","강동구 명일1동 자치회관 강의실(3층)","무료","명일1동 자치회관 ","제한없음(10명이상)","http://yeyak.seoul.go.kr/reservation/view.web?rsvsvcid=S191224194444405676","37.54976290707913","127.14598250401684","2019-12-26 00:00:00.0","2020-12-31 00:00:00.0","2019-12-26 00:00:00.0","2020-12-23 23:59:00.0","강동구"
"자체","S181228230340520153","시설대관","회의실","접수종료","강동구청 소회의실","유료(요금안내문의)","강동구청 소회의실","제한없음","http://yeyak.seoul.go.kr/reservation/view.web?rsvsvcid=S181228230340520153","37.5301608836","127.1237924476","2018-12-28 00:00:00.0","2020-12-31 00:00:00.0","2018-12-28 00:00:00.0","2020-12-31 09:00:00.0","강동구"
"자체","S181228225405899311","시설대관","회의실","접수종료","강동구청 중회의실(이동형)","유료(요금안내문의)","강동구청 중회의실(고정형)","제한없음","http://yeyak.seoul.go.kr/reservation/view.web?rsvsvcid=S181228225405899311","37.5301608836","127.1237924476","2018-12-28 00:00:00.0","2020-12-31 00:00:00.0","2018-12-28 00:00:00.0","2020-12-31 09:00:00.0","강동구"
"자체","S181228225833575634","시설대관","회의실","접수종료","강동구청 중회의실(고정형)","유료(요금안내문의)","강동구청 중회의실(고정형)","제한없음","http://yeyak.seoul.go.kr/reservation/view.web?rsvsvcid=S181228225833575634","37.5301608836","127.1237924476","2018-12-28 00:00:00.0","2020-12-31 00:00:00.0","2018-12-28 00:00:00.0","2020-12-31 18:00:00.0","강동구"
"자체","S200113143606472829","시설대관","강의실","접수중","강동구 강일동 자치회관 다온(3층)","무료","강일동주민센터-다온실","성인","http://yeyak.seoul.go.kr/reservation/view.web?rsvsvcid=S200113143606472829","37.565042019206615","127.17390630538449","2020-01-13 00:00:00.0","2020-12-31 00:00:00.0","2020-01-13 09:00:00.0","2020-12-20 23:50:00.0","강동구"
"자체","S191231151100804642","시설대관","다목적실","접수중","강동구 천호2동 제1자치회관 다목적실(4층)","유료","천호2동 제1자치회관","제한없음","http://yeyak.seoul.go.kr/reservation/view.web?rsvsvcid=S191231151100804642","","","2020-01-01 00:00:00.0","2020-12-31 00:00:00.0","2020-01-01 09:00:00.0","2020-12-31 18:00:00.0","강동구"
"자체","S200116101419833329","시설대관","다목적실","접수중","강동구 천호1동 자치회관 다목적실(3층)","무료","천호1동 자치회관","제한없음","http://yeyak.seoul.go.kr/reservation/view.web?rsvsvcid=S200116101419833329","37.54502023777883","127.13679844494058","2020-01-17 00:00:00.0","2020-12-31 00:00:00.0","2020-01-17 00:00:00.0","2020-12-31 00:00:00.0","강동구"
"자체","S181228224812777111","시설대관","강당","접수종료","강동구청 대강당","유료(요금안내문의)","강동구청 대강당","제한없음","http://yeyak.seoul.go.kr/reservation/view.web?rsvsvcid=S181228224812777111","37.53016088364412","127.1237924476467","2018-12-28 00:00:00.0","2020-12-31 00:00:00.0","2018-12-28 00:00:00.0","2020-12-31 18:00:00.0","강동구"